Sp;Kernel;TemplateVars;SM_10;SM_13;SM_20;SM_30;Args
cusph;KerAddDelta;;0;3;6;0;EjPKfPf
cusph;KerCalcRidp;;0;3;6;0;EjjjjPKjPj
cusph;KerCalcRidp;;0;3;6;0;EjjjjPKtPKjPj
cusph;KerComputeAceMod;;0;5;8;0;EjPK6float3Pf
cusph;KerComputeAceMod;;0;4;8;0;EjPKtPK6float3Pf
cusph;KerComputeBarrier;h=1, b=0;0;8;14;0;EvjjddfPK7double2PKdP6float4P6float3S9_
cusph;KerComputeBarrier;h=1, b=1;0;9;15;0;EvjjddfPK7double2PKdP6float4P6float3S9_
cusph;KerComputeBarrier;h=2, b=0;0;8;16;0;EvjjddfPK7double2PKdP6float4P6float3S9_
cusph;KerComputeBarrier;h=2, b=1;0;9;15;0;EvjjddfPK7double2PKdP6float4P6float3S9_
cusph;KerComputeBarrier;h=3, b=0;0;8;12;0;EvjjddfPK7double2PKdP6float4P6float3S9_
cusph;KerComputeBarrier;h=3, b=1;0;9;14;0;EvjjddfPK7double2PKdP6float4P6float3S9_
cusph;KerComputeDamping;h=1;0;19;22;0;EvjjbddddffffffPK7double2PKdP6float4P6float3S9_
cusph;KerComputeDamping;h=2;0;19;22;0;EvjjbddddffffffPK7double2PKdP6float4P6float3S9_
cusph;KerComputeDamping;h=3;0;19;22;0;EvjjbddddffffffPK7double2PKdP6float4P6float3S9_
cusph;KerComputeFluidHeight;;0;33;30;0;Ejjjdddddf6tuint3PK4int24int3PK7double2PKdPf
cusph;KerComputeInletPrecise;b=0, h=1;0;42;38;0;EvPhjjtfdddd6float3jjjjj6tuint3PK4int24int3P7double2PdPjPtP6float4SE_
cusph;KerComputeInletPrecise;b=0, h=2;0;42;38;0;EvPhjjtfdddd6float3jjjjj6tuint3PK4int24int3P7double2PdPjPtP6float4SE_
cusph;KerComputeInletPrecise;b=0, h=3;0;42;38;0;EvPhjjtfdddd6float3jjjjj6tuint3PK4int24int3P7double2PdPjPtP6float4SE_
cusph;KerComputeInletPrecise;b=1, h=1;0;42;38;0;EvPhjjtfdddd6float3jjjjj6tuint3PK4int24int3P7double2PdPjPtP6float4SE_
cusph;KerComputeInletPrecise;b=1, h=2;0;42;38;0;EvPhjjtfdddd6float3jjjjj6tuint3PK4int24int3P7double2PdPjPtP6float4SE_
cusph;KerComputeInletPrecise;b=1, h=3;0;42;38;0;EvPhjjtfdddd6float3jjjjj6tuint3PK4int24int3P7double2PdPjPtP6float4SE_
cusph;KerComputeStepPos2;b=0, b=0;0;25;25;0;EvjjPK7double2PKdS3_S5_PS1_PdPjPt
cusph;KerComputeStepPos2;b=0, b=1;0;25;29;0;EvjjPK7double2PKdS3_S5_PS1_PdPjPt
cusph;KerComputeStepPos2;b=1, b=0;0;39;30;0;EvjjPK7double2PKdS3_S5_PS1_PdPjPt
cusph;KerComputeStepPos2;b=1, b=1;0;39;30;0;EvjjPK7double2PKdS3_S5_PS1_PdPjPt
cusph;KerComputeStepPos;b=0, b=0;0;25;25;0;EvjjPK7double2PKdPS1_PdPjPt
cusph;KerComputeStepPos;b=0, b=1;0;25;25;0;EvjjPK7double2PKdPS1_PdPjPt
cusph;KerComputeStepPos;b=1, b=0;0;39;30;0;EvjjPK7double2PKdPS1_PdPjPt
cusph;KerComputeStepPos;b=1, b=1;0;39;30;0;EvjjPK7double2PKdPS1_PdPjPt
cusph;KerComputeStepSymplecticCor;b=0;0;25;26;0;EvjjPK6float4PKfPK6float3ddffPtP7double2PdPS1_
cusph;KerComputeStepSymplecticCor;b=1;0;23;27;0;EvjjPK6float4PKfPK6float3ddffPtP7double2PdPS1_
cusph;KerComputeStepSymplecticPre;b=0;0;19;27;0;EvjjPK6float4PKfPK6float3S8_dfffPtP7double2PdPS1_
cusph;KerComputeStepSymplecticPre;b=1;0;19;27;0;EvjjPK6float4PKfPK6float3S8_dfffPtP7double2PdPS1_
cusph;KerComputeStepVerlet;b=0;0;24;34;0;EvjjffPK6float4S3_PKfPK6float3S8_dddfP7double2PdPtPS1_
cusph;KerComputeStepVerlet;b=1;0;24;34;0;EvjjffPK6float4S3_PKfPK6float3S8_dddfP7double2PdPtPS1_
cusph;KerFtCalcDist;;0;12;18;0;EjjdddPKjPK7double2PKdP6float3
cusph;KerFtCalcMassp;;0;3;6;0;EjjPKtPKfPf
cusph;KerFtCalcOmega;;0;17;23;0;Ejj6float3fPKjPKS0_S4_PS0_
cusph;KerFtUpdate;b=0, b=0;0;34;34;0;Evjjdddd6float3S1_PKjPS1_P7double2PdPjP6float4Pt
cusph;KerFtUpdate;b=0, b=1;0;33;34;0;Evjjdddd6float3S1_PKjPS1_P7double2PdPjP6float4Pt
cusph;KerFtUpdate;b=1, b=0;0;45;36;0;Evjjdddd6float3S1_PKjPS1_P7double2PdPjP6float4Pt
cusph;KerFtUpdate;b=1, b=1;0;44;35;0;Evjjdddd6float3S1_PKjPS1_P7double2PdPjP6float4Pt
cusph;KerInitArray;;0;3;6;0;EjP6float3S0_
cusph;KerInteractionForcesBound;b=0, b=0, j=1;0;35;40;0;Evj5uint4PK4int24int3PKjPK7double2PKdPK6float4SF_S7_PKfPfSI_
cusph;KerInteractionForcesBound;b=0, b=0, j=2;0;35;40;0;Evj5uint4PK4int24int3PKjPK7double2PKdPK6float4SF_S7_PKfPfSI_
cusph;KerInteractionForcesBound;b=0, b=1, j=1;0;36;44;0;Evj5uint4PK4int24int3PKjPK7double2PKdPK6float4SF_S7_PKfPfSI_
cusph;KerInteractionForcesBound;b=0, b=1, j=2;0;36;44;0;Evj5uint4PK4int24int3PKjPK7double2PKdPK6float4SF_S7_PKfPfSI_
cusph;KerInteractionForcesBound;b=1, b=0, j=1;0;31;35;0;Evj5uint4PK4int24int3PKjPK7double2PKdPK6float4SF_S7_PKfPfSI_
cusph;KerInteractionForcesBound;b=1, b=0, j=2;0;31;35;0;Evj5uint4PK4int24int3PKjPK7double2PKdPK6float4SF_S7_PKfPfSI_
cusph;KerInteractionForcesBound;b=1, b=1, j=1;0;32;39;0;Evj5uint4PK4int24int3PKjPK7double2PKdPK6float4SF_S7_PKfPfSI_
cusph;KerInteractionForcesBound;b=1, b=1, j=2;0;32;39;0;Evj5uint4PK4int24int3PKjPK7double2PKdPK6float4SF_S7_PKfPfSI_
cusph;KerInteractionForcesFluid;b=0, b=0, TpDeltaSph=0, b=0, j=1;0;48;51;0;Evjj5uint4jffPK4int24int3PKjPK7double2PKdPK6float4SG_S8_PKfPfSJ_P6float3SL_SJ_
cusph;KerInteractionForcesFluid;b=0, b=0, TpDeltaSph=0, b=0, j=2;0;48;51;0;Evjj5uint4jffPK4int24int3PKjPK7double2PKdPK6float4SG_S8_PKfPfSJ_P6float3SL_SJ_
cusph;KerInteractionForcesFluid;b=0, b=0, TpDeltaSph=0, b=1, j=1;0;50;55;0;Evjj5uint4jffPK4int24int3PKjPK7double2PKdPK6float4SG_S8_PKfPfSJ_P6float3SL_SJ_
cusph;KerInteractionForcesFluid;b=0, b=0, TpDeltaSph=0, b=1, j=2;0;50;55;0;Evjj5uint4jffPK4int24int3PKjPK7double2PKdPK6float4SG_S8_PKfPfSJ_P6float3SL_SJ_
cusph;KerInteractionForcesFluid;b=0, b=0, TpDeltaSph=2, b=0, j=1;0;48;53;0;Evjj5uint4jffPK4int24int3PKjPK7double2PKdPK6float4SG_S8_PKfPfSJ_P6float3SL_SJ_
cusph;KerInteractionForcesFluid;b=0, b=0, TpDeltaSph=2, b=0, j=2;0;48;53;0;Evjj5uint4jffPK4int24int3PKjPK7double2PKdPK6float4SG_S8_PKfPfSJ_P6float3SL_SJ_
cusph;KerInteractionForcesFluid;b=0, b=0, TpDeltaSph=2, b=1, j=1;0;56;58;0;Evjj5uint4jffPK4int24int3PKjPK7double2PKdPK6float4SG_S8_PKfPfSJ_P6float3SL_SJ_
cusph;KerInteractionForcesFluid;b=0, b=0, TpDeltaSph=2, b=1, j=2;0;56;58;0;Evjj5uint4jffPK4int24int3PKjPK7double2PKdPK6float4SG_S8_PKfPfSJ_P6float3SL_SJ_
cusph;KerInteractionForcesFluid;b=0, b=0, TpDeltaSph=3, b=0, j=1;0;48;53;0;Evjj5uint4jffPK4int24int3PKjPK7double2PKdPK6float4SG_S8_PKfPfSJ_P6float3SL_SJ_
cusph;KerInteractionForcesFluid;b=0, b=0, TpDeltaSph=3, b=0, j=2;0;48;53;0;Evjj5uint4jffPK4int24int3PKjPK7double2PKdPK6float4SG_S8_PKfPfSJ_P6float3SL_SJ_
cusph;KerInteractionForcesFluid;b=0, b=0, TpDeltaSph=3, b=1, j=1;0;56;58;0;Evjj5uint4jffPK4int24int3PKjPK7double2PKdPK6float4SG_S8_PKfPfSJ_P6float3SL_SJ_
cusph;KerInteractionForcesFluid;b=0, b=0, TpDeltaSph=3, b=1, j=2;0;56;58;0;Evjj5uint4jffPK4int24int3PKjPK7double2PKdPK6float4SG_S8_PKfPfSJ_P6float3SL_SJ_
cusph;KerInteractionForcesFluid;b=0, b=1, TpDeltaSph=0, b=0, j=1;0;51;55;0;Evjj5uint4jffPK4int24int3PKjPK7double2PKdPK6float4SG_S8_PKfPfSJ_P6float3SL_SJ_
cusph;KerInteractionForcesFluid;b=0, b=1, TpDeltaSph=0, b=0, j=2;0;51;55;0;Evjj5uint4jffPK4int24int3PKjPK7double2PKdPK6float4SG_S8_PKfPfSJ_P6float3SL_SJ_
cusph;KerInteractionForcesFluid;b=0, b=1, TpDeltaSph=0, b=1, j=1;0;55;60;0;Evjj5uint4jffPK4int24int3PKjPK7double2PKdPK6float4SG_S8_PKfPfSJ_P6float3SL_SJ_
cusph;KerInteractionForcesFluid;b=0, b=1, TpDeltaSph=0, b=1, j=2;0;55;60;0;Evjj5uint4jffPK4int24int3PKjPK7double2PKdPK6float4SG_S8_PKfPfSJ_P6float3SL_SJ_
cusph;KerInteractionForcesFluid;b=0, b=1, TpDeltaSph=2, b=0, j=1;0;56;61;0;Evjj5uint4jffPK4int24int3PKjPK7double2PKdPK6float4SG_S8_PKfPfSJ_P6float3SL_SJ_
cusph;KerInteractionForcesFluid;b=0, b=1, TpDeltaSph=2, b=0, j=2;0;56;61;0;Evjj5uint4jffPK4int24int3PKjPK7double2PKdPK6float4SG_S8_PKfPfSJ_P6float3SL_SJ_
cusph;KerInteractionForcesFluid;b=0, b=1, TpDeltaSph=2, b=1, j=1;0;61;63;0;Evjj5uint4jffPK4int24int3PKjPK7double2PKdPK6float4SG_S8_PKfPfSJ_P6float3SL_SJ_
cusph;KerInteractionForcesFluid;b=0, b=1, TpDeltaSph=2, b=1, j=2;0;61;63;0;Evjj5uint4jffPK4int24int3PKjPK7double2PKdPK6float4SG_S8_PKfPfSJ_P6float3SL_SJ_
cusph;KerInteractionForcesFluid;b=0, b=1, TpDeltaSph=3, b=0, j=1;0;56;61;0;Evjj5uint4jffPK4int24int3PKjPK7double2PKdPK6float4SG_S8_PKfPfSJ_P6float3SL_SJ_
cusph;KerInteractionForcesFluid;b=0, b=1, TpDeltaSph=3, b=0, j=2;0;56;61;0;Evjj5uint4jffPK4int24int3PKjPK7double2PKdPK6float4SG_S8_PKfPfSJ_P6float3SL_SJ_
cusph;KerInteractionForcesFluid;b=0, b=1, TpDeltaSph=3, b=1, j=1;0;61;63;0;Evjj5uint4jffPK4int24int3PKjPK7double2PKdPK6float4SG_S8_PKfPfSJ_P6float3SL_SJ_
cusph;KerInteractionForcesFluid;b=0, b=1, TpDeltaSph=3, b=1, j=2;0;61;63;0;Evjj5uint4jffPK4int24int3PKjPK7double2PKdPK6float4SG_S8_PKfPfSJ_P6float3SL_SJ_
cusph;KerInteractionForcesFluid;b=1, b=0, TpDeltaSph=0, b=0, j=1;0;42;46;0;Evjj5uint4jffPK4int24int3PKjPK7double2PKdPK6float4SG_S8_PKfPfSJ_P6float3SL_SJ_
cusph;KerInteractionForcesFluid;b=1, b=0, TpDeltaSph=0, b=0, j=2;0;42;46;0;Evjj5uint4jffPK4int24int3PKjPK7double2PKdPK6float4SG_S8_PKfPfSJ_P6float3SL_SJ_
cusph;KerInteractionForcesFluid;b=1, b=0, TpDeltaSph=0, b=1, j=1;0;47;50;0;Evjj5uint4jffPK4int24int3PKjPK7double2PKdPK6float4SG_S8_PKfPfSJ_P6float3SL_SJ_
cusph;KerInteractionForcesFluid;b=1, b=0, TpDeltaSph=0, b=1, j=2;0;47;50;0;Evjj5uint4jffPK4int24int3PKjPK7double2PKdPK6float4SG_S8_PKfPfSJ_P6float3SL_SJ_
cusph;KerInteractionForcesFluid;b=1, b=0, TpDeltaSph=2, b=0, j=1;0;47;49;0;Evjj5uint4jffPK4int24int3PKjPK7double2PKdPK6float4SG_S8_PKfPfSJ_P6float3SL_SJ_
cusph;KerInteractionForcesFluid;b=1, b=0, TpDeltaSph=2, b=0, j=2;0;47;49;0;Evjj5uint4jffPK4int24int3PKjPK7double2PKdPK6float4SG_S8_PKfPfSJ_P6float3SL_SJ_
cusph;KerInteractionForcesFluid;b=1, b=0, TpDeltaSph=2, b=1, j=1;0;49;53;0;Evjj5uint4jffPK4int24int3PKjPK7double2PKdPK6float4SG_S8_PKfPfSJ_P6float3SL_SJ_
cusph;KerInteractionForcesFluid;b=1, b=0, TpDeltaSph=2, b=1, j=2;0;49;53;0;Evjj5uint4jffPK4int24int3PKjPK7double2PKdPK6float4SG_S8_PKfPfSJ_P6float3SL_SJ_
cusph;KerInteractionForcesFluid;b=1, b=0, TpDeltaSph=3, b=0, j=1;0;47;49;0;Evjj5uint4jffPK4int24int3PKjPK7double2PKdPK6float4SG_S8_PKfPfSJ_P6float3SL_SJ_
cusph;KerInteractionForcesFluid;b=1, b=0, TpDeltaSph=3, b=0, j=2;0;47;49;0;Evjj5uint4jffPK4int24int3PKjPK7double2PKdPK6float4SG_S8_PKfPfSJ_P6float3SL_SJ_
cusph;KerInteractionForcesFluid;b=1, b=0, TpDeltaSph=3, b=1, j=1;0;49;53;0;Evjj5uint4jffPK4int24int3PKjPK7double2PKdPK6float4SG_S8_PKfPfSJ_P6float3SL_SJ_
cusph;KerInteractionForcesFluid;b=1, b=0, TpDeltaSph=3, b=1, j=2;0;49;53;0;Evjj5uint4jffPK4int24int3PKjPK7double2PKdPK6float4SG_S8_PKfPfSJ_P6float3SL_SJ_
cusph;KerInteractionForcesFluid;b=1, b=1, TpDeltaSph=0, b=0, j=1;0;48;51;0;Evjj5uint4jffPK4int24int3PKjPK7double2PKdPK6float4SG_S8_PKfPfSJ_P6float3SL_SJ_
cusph;KerInteractionForcesFluid;b=1, b=1, TpDeltaSph=0, b=0, j=2;0;48;51;0;Evjj5uint4jffPK4int24int3PKjPK7double2PKdPK6float4SG_S8_PKfPfSJ_P6float3SL_SJ_
cusph;KerInteractionForcesFluid;b=1, b=1, TpDeltaSph=0, b=1, j=1;0;51;57;0;Evjj5uint4jffPK4int24int3PKjPK7double2PKdPK6float4SG_S8_PKfPfSJ_P6float3SL_SJ_
cusph;KerInteractionForcesFluid;b=1, b=1, TpDeltaSph=0, b=1, j=2;0;51;57;0;Evjj5uint4jffPK4int24int3PKjPK7double2PKdPK6float4SG_S8_PKfPfSJ_P6float3SL_SJ_
cusph;KerInteractionForcesFluid;b=1, b=1, TpDeltaSph=2, b=0, j=1;0;51;54;0;Evjj5uint4jffPK4int24int3PKjPK7double2PKdPK6float4SG_S8_PKfPfSJ_P6float3SL_SJ_
cusph;KerInteractionForcesFluid;b=1, b=1, TpDeltaSph=2, b=0, j=2;0;51;54;0;Evjj5uint4jffPK4int24int3PKjPK7double2PKdPK6float4SG_S8_PKfPfSJ_P6float3SL_SJ_
cusph;KerInteractionForcesFluid;b=1, b=1, TpDeltaSph=2, b=1, j=1;0;58;60;0;Evjj5uint4jffPK4int24int3PKjPK7double2PKdPK6float4SG_S8_PKfPfSJ_P6float3SL_SJ_
cusph;KerInteractionForcesFluid;b=1, b=1, TpDeltaSph=2, b=1, j=2;0;58;60;0;Evjj5uint4jffPK4int24int3PKjPK7double2PKdPK6float4SG_S8_PKfPfSJ_P6float3SL_SJ_
cusph;KerInteractionForcesFluid;b=1, b=1, TpDeltaSph=3, b=0, j=1;0;51;54;0;Evjj5uint4jffPK4int24int3PKjPK7double2PKdPK6float4SG_S8_PKfPfSJ_P6float3SL_SJ_
cusph;KerInteractionForcesFluid;b=1, b=1, TpDeltaSph=3, b=0, j=2;0;51;54;0;Evjj5uint4jffPK4int24int3PKjPK7double2PKdPK6float4SG_S8_PKfPfSJ_P6float3SL_SJ_
cusph;KerInteractionForcesFluid;b=1, b=1, TpDeltaSph=3, b=1, j=1;0;58;60;0;Evjj5uint4jffPK4int24int3PKjPK7double2PKdPK6float4SG_S8_PKfPfSJ_P6float3SL_SJ_
cusph;KerInteractionForcesFluid;b=1, b=1, TpDeltaSph=3, b=1, j=2;0;58;60;0;Evjj5uint4jffPK4int24int3PKjPK7double2PKdPK6float4SG_S8_PKfPfSJ_P6float3SL_SJ_
cusph;KerInteractionForcesGbound_Basic;b=0, TpGboundMode=0, TpDeltaSph=0, b=0;0;49;53;0;EvPhfffjPK6float3jPK6float4S9_jjPKjSB_jSB_S9_S9_SB_PfSC_PS4_SD_SC_
cusph;KerInteractionForcesGbound_Basic;b=0, TpGboundMode=0, TpDeltaSph=0, b=1;0;51;56;0;EvPhfffjPK6float3jPK6float4S9_jjPKjSB_jSB_S9_S9_SB_PfSC_PS4_SD_SC_
cusph;KerInteractionForcesGbound_Basic;b=0, TpGboundMode=1, TpDeltaSph=0, b=0;0;49;53;0;EvPhfffjPK6float3jPK6float4S9_jjPKjSB_jSB_S9_S9_SB_PfSC_PS4_SD_SC_
cusph;KerInteractionForcesGbound_Basic;b=0, TpGboundMode=1, TpDeltaSph=0, b=1;0;51;56;0;EvPhfffjPK6float3jPK6float4S9_jjPKjSB_jSB_S9_S9_SB_PfSC_PS4_SD_SC_
cusph;KerInteractionForcesGbound_Basic;b=0, TpGboundMode=2, TpDeltaSph=0, b=0;0;49;53;0;EvPhfffjPK6float3jPK6float4S9_jjPKjSB_jSB_S9_S9_SB_PfSC_PS4_SD_SC_
cusph;KerInteractionForcesGbound_Basic;b=0, TpGboundMode=2, TpDeltaSph=0, b=1;0;51;56;0;EvPhfffjPK6float3jPK6float4S9_jjPKjSB_jSB_S9_S9_SB_PfSC_PS4_SD_SC_
cusph;KerInteractionForcesGbound_Basic;b=0, TpGboundMode=3, TpDeltaSph=0, b=0;0;49;53;0;EvPhfffjPK6float3jPK6float4S9_jjPKjSB_jSB_S9_S9_SB_PfSC_PS4_SD_SC_
cusph;KerInteractionForcesGbound_Basic;b=0, TpGboundMode=3, TpDeltaSph=0, b=1;0;51;56;0;EvPhfffjPK6float3jPK6float4S9_jjPKjSB_jSB_S9_S9_SB_PfSC_PS4_SD_SC_
cusph;KerInteractionForcesGbound_Basic;b=1, TpGboundMode=0, TpDeltaSph=0, b=0;0;46;53;0;EvPhfffjPK6float3jPK6float4S9_jjPKjSB_jSB_S9_S9_SB_PfSC_PS4_SD_SC_
cusph;KerInteractionForcesGbound_Basic;b=1, TpGboundMode=0, TpDeltaSph=0, b=1;0;49;56;0;EvPhfffjPK6float3jPK6float4S9_jjPKjSB_jSB_S9_S9_SB_PfSC_PS4_SD_SC_
cusph;KerInteractionForcesGbound_Basic;b=1, TpGboundMode=1, TpDeltaSph=0, b=0;0;46;53;0;EvPhfffjPK6float3jPK6float4S9_jjPKjSB_jSB_S9_S9_SB_PfSC_PS4_SD_SC_
cusph;KerInteractionForcesGbound_Basic;b=1, TpGboundMode=1, TpDeltaSph=0, b=1;0;49;56;0;EvPhfffjPK6float3jPK6float4S9_jjPKjSB_jSB_S9_S9_SB_PfSC_PS4_SD_SC_
cusph;KerInteractionForcesGbound_Basic;b=1, TpGboundMode=2, TpDeltaSph=0, b=0;0;46;53;0;EvPhfffjPK6float3jPK6float4S9_jjPKjSB_jSB_S9_S9_SB_PfSC_PS4_SD_SC_
cusph;KerInteractionForcesGbound_Basic;b=1, TpGboundMode=2, TpDeltaSph=0, b=1;0;49;56;0;EvPhfffjPK6float3jPK6float4S9_jjPKjSB_jSB_S9_S9_SB_PfSC_PS4_SD_SC_
cusph;KerInteractionForcesGbound_Basic;b=1, TpGboundMode=3, TpDeltaSph=0, b=0;0;46;53;0;EvPhfffjPK6float3jPK6float4S9_jjPKjSB_jSB_S9_S9_SB_PfSC_PS4_SD_SC_
cusph;KerInteractionForcesGbound_Basic;b=1, TpGboundMode=3, TpDeltaSph=0, b=1;0;49;56;0;EvPhfffjPK6float3jPK6float4S9_jjPKjSB_jSB_S9_S9_SB_PfSC_PS4_SD_SC_
cusph;KerInteractionForcesGbound_SpList;b=0, TpDeltaSph=0, b=0;0;32;33;0;EvPhfffjPK6float3jPK6float4PKjPKtSC_jS8_S8_SA_PfSD_PS3_SE_SD_
cusph;KerInteractionForcesGbound_SpList;b=0, TpDeltaSph=0, b=1;0;35;37;0;EvPhfffjPK6float3jPK6float4PKjPKtSC_jS8_S8_SA_PfSD_PS3_SE_SD_
cusph;KerInteractionForcesGbound_SpList;b=1, TpDeltaSph=0, b=0;0;32;33;0;EvPhfffjPK6float3jPK6float4PKjPKtSC_jS8_S8_SA_PfSD_PS3_SE_SD_
cusph;KerInteractionForcesGbound_SpList;b=1, TpDeltaSph=0, b=1;0;35;37;0;EvPhfffjPK6float3jPK6float4PKjPKtSC_jS8_S8_SA_PfSD_PS3_SE_SD_
cusph;KerInteractionForcesGbound_TriList;b=0, TpDeltaSph=0, b=0;0;31;31;0;EvPhfffjPK6float3jPK6float4PKjPKtjS8_S8_SA_PfSD_PS3_SE_SD_
cusph;KerInteractionForcesGbound_TriList;b=0, TpDeltaSph=0, b=1;0;34;35;0;EvPhfffjPK6float3jPK6float4PKjPKtjS8_S8_SA_PfSD_PS3_SE_SD_
cusph;KerInteractionForcesGbound_TriList;b=1, TpDeltaSph=0, b=0;0;31;31;0;EvPhfffjPK6float3jPK6float4PKjPKtjS8_S8_SA_PfSD_PS3_SE_SD_
cusph;KerInteractionForcesGbound_TriList;b=1, TpDeltaSph=0, b=1;0;33;35;0;EvPhfffjPK6float3jPK6float4PKjPKtjS8_S8_SA_PfSD_PS3_SE_SD_
cusph;KerMoveLinBound;b=0;0;26;26;0;Evjj7double36float3PKjP7double2PdPjP6float4Pt
cusph;KerMoveLinBound;b=1;0;30;26;0;Evjj7double36float3PKjP7double2PdPjP6float4Pt
cusph;KerMoveMatBound;b=0, b=0;0;32;32;0;Evjj9tmatrix4ddPKjP7double2PdPjP6float4Pt
cusph;KerMoveMatBound;b=0, b=1;0;32;32;0;Evjj9tmatrix4ddPKjP7double2PdPjP6float4Pt
cusph;KerMoveMatBound;b=1, b=0;0;38;34;0;Evjj9tmatrix4ddPKjP7double2PdPjP6float4Pt
cusph;KerMoveMatBound;b=1, b=1;0;38;34;0;Evjj9tmatrix4ddPKjP7double2PdPjP6float4Pt
cusph;KerMovePiston1d;h=0, TpCellOrder=1;0;27;28;0;EvjjddjPKhPKdS5_PKjP7double2PdPjP6float4Pt
cusph;KerMovePiston1d;h=0, TpCellOrder=2;0;27;27;0;EvjjddjPKhPKdS5_PKjP7double2PdPjP6float4Pt
cusph;KerMovePiston1d;h=0, TpCellOrder=3;0;27;28;0;EvjjddjPKhPKdS5_PKjP7double2PdPjP6float4Pt
cusph;KerMovePiston1d;h=0, TpCellOrder=4;0;28;27;0;EvjjddjPKhPKdS5_PKjP7double2PdPjP6float4Pt
cusph;KerMovePiston1d;h=0, TpCellOrder=5;0;27;27;0;EvjjddjPKhPKdS5_PKjP7double2PdPjP6float4Pt
cusph;KerMovePiston1d;h=0, TpCellOrder=6;0;28;27;0;EvjjddjPKhPKdS5_PKjP7double2PdPjP6float4Pt
cusph;KerMovePiston1d;h=1, TpCellOrder=1;0;33;27;0;EvjjddjPKhPKdS5_PKjP7double2PdPjP6float4Pt
cusph;KerMovePiston1d;h=1, TpCellOrder=2;0;33;27;0;EvjjddjPKhPKdS5_PKjP7double2PdPjP6float4Pt
cusph;KerMovePiston1d;h=1, TpCellOrder=3;0;33;27;0;EvjjddjPKhPKdS5_PKjP7double2PdPjP6float4Pt
cusph;KerMovePiston1d;h=1, TpCellOrder=4;0;33;27;0;EvjjddjPKhPKdS5_PKjP7double2PdPjP6float4Pt
cusph;KerMovePiston1d;h=1, TpCellOrder=5;0;32;29;0;EvjjddjPKhPKdS5_PKjP7double2PdPjP6float4Pt
cusph;KerMovePiston1d;h=1, TpCellOrder=6;0;32;29;0;EvjjddjPKhPKdS5_PKjP7double2PdPjP6float4Pt
cusph;KerMovePiston;b=0, h=1;0;27;27;0;EvjjjPKjPKdS2_P7double2PdPjP6float4Pt
cusph;KerMovePiston;b=0, h=2;0;27;27;0;EvjjjPKjPKdS2_P7double2PdPjP6float4Pt
cusph;KerMovePiston;b=0, h=3;0;27;27;0;EvjjjPKjPKdS2_P7double2PdPjP6float4Pt
cusph;KerMovePiston;b=1, h=1;0;33;27;0;EvjjjPKjPKdS2_P7double2PdPjP6float4Pt
cusph;KerMovePiston;b=1, h=2;0;33;27;0;EvjjjPKjPKdS2_P7double2PdPjP6float4Pt
cusph;KerMovePiston;b=1, h=3;0;33;27;0;EvjjjPKjPKdS2_P7double2PdPjP6float4Pt
cusph;KerPeriodicDuplicateSymplectic;b=0;0;28;30;0;Evjj5uint37double3PKjPjPtS5_P7double2PdP6float4S8_S9_SB_
cusph;KerPeriodicDuplicateSymplectic;b=1;0;30;34;0;Evjj5uint37double3PKjPjPtS5_P7double2PdP6float4S8_S9_SB_
cusph;KerPeriodicDuplicateVerlet;;0;28;30;0;Ejj5uint37double3PKjPjPtS4_P7double2PdP6float4SA_
cusph;KerPeriodicIgnore;;0;3;6;0;EjPt
cusph;KerPeriodicMakeList;;0;17;17;0;Ejjj7double3S0_S0_PK7double2PKdPKtPj
cusph;KerPreForcesGbound_SpList;b=0, TpGboundMode=0;0;30;35;0;EvPhjPK6float3jPK6float4S8_jjPKjSA_jSA_S8_PtSB_
cusph;KerPreForcesGbound_SpList;b=0, TpGboundMode=1;0;30;35;0;EvPhjPK6float3jPK6float4S8_jjPKjSA_jSA_S8_PtSB_
cusph;KerPreForcesGbound_SpList;b=0, TpGboundMode=2;0;30;35;0;EvPhjPK6float3jPK6float4S8_jjPKjSA_jSA_S8_PtSB_
cusph;KerPreForcesGbound_SpList;b=0, TpGboundMode=3;0;30;35;0;EvPhjPK6float3jPK6float4S8_jjPKjSA_jSA_S8_PtSB_
cusph;KerPreForcesGbound_SpList;b=1, TpGboundMode=0;0;30;35;0;EvPhjPK6float3jPK6float4S8_jjPKjSA_jSA_S8_PtSB_
cusph;KerPreForcesGbound_SpList;b=1, TpGboundMode=1;0;30;35;0;EvPhjPK6float3jPK6float4S8_jjPKjSA_jSA_S8_PtSB_
cusph;KerPreForcesGbound_SpList;b=1, TpGboundMode=2;0;30;35;0;EvPhjPK6float3jPK6float4S8_jjPKjSA_jSA_S8_PtSB_
cusph;KerPreForcesGbound_SpList;b=1, TpGboundMode=3;0;30;35;0;EvPhjPK6float3jPK6float4S8_jjPKjSA_jSA_S8_PtSB_
cusph;KerPreForcesGbound_TriList;b=0, TpGboundMode=0;0;28;33;0;EvPhjPK6float3jPK6float4S8_jjPKjSA_jSA_S8_Pt
cusph;KerPreForcesGbound_TriList;b=0, TpGboundMode=1;0;28;34;0;EvPhjPK6float3jPK6float4S8_jjPKjSA_jSA_S8_Pt
cusph;KerPreForcesGbound_TriList;b=0, TpGboundMode=2;0;28;33;0;EvPhjPK6float3jPK6float4S8_jjPKjSA_jSA_S8_Pt
cusph;KerPreForcesGbound_TriList;b=0, TpGboundMode=3;0;28;34;0;EvPhjPK6float3jPK6float4S8_jjPKjSA_jSA_S8_Pt
cusph;KerPreForcesGbound_TriList;b=1, TpGboundMode=0;0;28;33;0;EvPhjPK6float3jPK6float4S8_jjPKjSA_jSA_S8_Pt
cusph;KerPreForcesGbound_TriList;b=1, TpGboundMode=1;0;28;34;0;EvPhjPK6float3jPK6float4S8_jjPKjSA_jSA_S8_Pt
cusph;KerPreForcesGbound_TriList;b=1, TpGboundMode=2;0;28;33;0;EvPhjPK6float3jPK6float4S8_jjPKjSA_jSA_S8_Pt
cusph;KerPreForcesGbound_TriList;b=1, TpGboundMode=3;0;28;34;0;EvPhjPK6float3jPK6float4S8_jjPKjSA_jSA_S8_Pt
cusph;KerPreInteractionSimple;;0;10;16;0;EjPK7double2PKdPK6float4PS5_ff
cusph;KerReduMaxFloat;j=256;0;4;6;0;EvjjPKfPf
cusph;KerReduMaxFloat_w;j=256;0;4;6;0;EvjjPK6float4Pf
cusph;KerResety;;0;3;6;0;EjPKjP6float3
cusph;KerResety;;0;3;4;0;EjjP6float3
cusph;KerSumAcePerfil;;0;8;10;0;EjjddddddffPK7double2PKdP6float3
thrust;detail;;0;0;2;0;6device4cuda6detail11b40c_thrust11FlushKernelIvEEvv
thrust;detail;;0;9;19;0;6device4cuda6detail11b40c_thrust13SrtsScanSpineIvEEvPiS6_i
thrust;detail;;0;17;25;0;6device4cuda6detail11b40c_thrust15RakingReductionIjNS4_12KeysOnlyTypeELi0ELi4ELi0ENS4_20PreprocessKeyFunctorIjEEEEvPbPiPT_SC_NS4_16CtaDecompositionE
thrust;detail;;0;20;28;0;6device4cuda6detail11b40c_thrust15RakingReductionIjNS4_12KeysOnlyTypeELi1ELi4ELi4ENS4_10NopFunctorIjEEEEvPbPiPT_SC_NS4_16CtaDecompositionE
thrust;detail;;0;20;28;0;6device4cuda6detail11b40c_thrust15RakingReductionIjNS4_12KeysOnlyTypeELi2ELi4ELi8ENS4_10NopFunctorIjEEEEvPbPiPT_SC_NS4_16CtaDecompositionE
thrust;detail;;0;20;28;0;6device4cuda6detail11b40c_thrust15RakingReductionIjNS4_12KeysOnlyTypeELi3ELi4ELi12ENS4_10NopFunctorIjEEEEvPbPiPT_SC_NS4_16CtaDecompositionE
thrust;detail;;0;20;28;0;6device4cuda6detail11b40c_thrust15RakingReductionIjNS4_12KeysOnlyTypeELi4ELi4ELi16ENS4_10NopFunctorIjEEEEvPbPiPT_SC_NS4_16CtaDecompositionE
thrust;detail;;0;20;28;0;6device4cuda6detail11b40c_thrust15RakingReductionIjNS4_12KeysOnlyTypeELi5ELi4ELi20ENS4_10NopFunctorIjEEEEvPbPiPT_SC_NS4_16CtaDecompositionE
thrust;detail;;0;20;28;0;6device4cuda6detail11b40c_thrust15RakingReductionIjNS4_12KeysOnlyTypeELi6ELi4ELi24ENS4_10NopFunctorIjEEEEvPbPiPT_SC_NS4_16CtaDecompositionE
thrust;detail;;0;20;28;0;6device4cuda6detail11b40c_thrust15RakingReductionIjNS4_12KeysOnlyTypeELi7ELi4ELi28ENS4_10NopFunctorIjEEEEvPbPiPT_SC_NS4_16CtaDecompositionE
thrust;detail;;0;22;31;0;6device4cuda6detail11b40c_thrust17ScanScatterDigitsIjNS4_12KeysOnlyTypeELi0ELi4ELi0ENS4_20PreprocessKeyFunctorIjEENS4_10NopFunctorIjEEEEvPbPiPT_SE_PT0_SG_NS4_16CtaDecompositionE
thrust;detail;;0;22;31;0;6device4cuda6detail11b40c_thrust17ScanScatterDigitsIjNS4_12KeysOnlyTypeELi1ELi4ELi4ENS4_10NopFunctorIjEES8_EEvPbPiPT_SC_PT0_SE_NS4_16CtaDecompositionE
thrust;detail;;0;22;31;0;6device4cuda6detail11b40c_thrust17ScanScatterDigitsIjNS4_12KeysOnlyTypeELi2ELi4ELi8ENS4_10NopFunctorIjEES8_EEvPbPiPT_SC_PT0_SE_NS4_16CtaDecompositionE
thrust;detail;;0;22;31;0;6device4cuda6detail11b40c_thrust17ScanScatterDigitsIjNS4_12KeysOnlyTypeELi3ELi4ELi12ENS4_10NopFunctorIjEES8_EEvPbPiPT_SC_PT0_SE_NS4_16CtaDecompositionE
thrust;detail;;0;22;31;0;6device4cuda6detail11b40c_thrust17ScanScatterDigitsIjNS4_12KeysOnlyTypeELi4ELi4ELi16ENS4_10NopFunctorIjEES8_EEvPbPiPT_SC_PT0_SE_NS4_16CtaDecompositionE
thrust;detail;;0;22;31;0;6device4cuda6detail11b40c_thrust17ScanScatterDigitsIjNS4_12KeysOnlyTypeELi5ELi4ELi20ENS4_10NopFunctorIjEES8_EEvPbPiPT_SC_PT0_SE_NS4_16CtaDecompositionE
thrust;detail;;0;22;31;0;6device4cuda6detail11b40c_thrust17ScanScatterDigitsIjNS4_12KeysOnlyTypeELi6ELi4ELi24ENS4_10NopFunctorIjEES8_EEvPbPiPT_SC_PT0_SE_NS4_16CtaDecompositionE
thrust;detail;;0;22;31;0;6device4cuda6detail11b40c_thrust17ScanScatterDigitsIjNS4_12KeysOnlyTypeELi7ELi4ELi28ENS4_10NopFunctorIjEENS4_21PostprocessKeyFunctorIjEEEEvPbPiPT_SE_PT0_SG_NS4_16CtaDecompositionE
thrust;detail;;0;9;12;0;6device4cuda6detail23launch_closure_by_valueINS2_18for_each_n_closureINS_12zip_iteratorINS_5tupleINS_10device_ptrIjEENS_16reverse_iteratorIS9_EENS_9null_typeESC_SC_SC_SC_SC_SC_SC_EEEEjNS0_18swap_pair_elementsEEEEEvT_
thrust;detail;;0;11;13;0;6device4cuda6detail23launch_closure_by_valueINS2_18for_each_n_closureINS_12zip_iteratorINS_5tupleINS_10device_ptrIjEENS_16reverse_iteratorIS9_EENS_9null_typeESC_SC_SC_SC_SC_SC_SC_EEEElNS0_18swap_pair_elementsEEEEEvT_
